{ "count":622,
  "star":4.5,
  "data": [
    {
      "img":"images/store_nine/img_profile1.jpg",
      "name": "王**宝",
      "words":"闲暇时间看片打一发很方便",
      "rating": "good",
      "ratingWord": "推荐"      
    },
        {
      "img":"images/store_nine/img_profile2.jpg",
      "name": "陈*名",
      "words":"短片居多 很方便看",
      "rating": "good",
      "ratingWord": "推荐"      
    },
        {
      "img":"images/store_nine/img_profile5.jpg",
      "name": "s***f",
      "words":"上头的小姐姐好正阿！",
      "rating": "good",
      "ratingWord": "推荐"      
    },
        {
      "img":"images/store_nine/img_profile6.jpg",
      "name": "李***同",
      "words":"用了这个身体一天不如一天了",
      "rating": "good",
      "ratingWord": "推荐"      
    },
        {
      "img":"images/store_nine/img_profile3.jpg",
      "name": "周***yy",
      "words":"免费又好看的短视频软件",
      "rating": "good",
      "ratingWord": "推荐"      
    },
        {
      "img":"images/store_nine/img_profile4.jpg",
      "name": "博***s",
      "words":"精采短片很多 很棒",
      "rating": "good",
      "ratingWord": "推荐"      
    },
        {
      "img":"images/store_nine/img_profile2.jpg",
      "name": "成**其",
      "words":"上车了！上车了",
      "rating": "normal",
      "ratingWord": "普通"      
    },
        {
      "img":"images/store_nine/img_profile5.jpg",
      "name": "梦***雨",
      "words":"好用",
      "rating": "good",
      "ratingWord": "推荐"      
    },
        {
      "img":"images/store_nine/img_profile6.jpg",
      "name": "高**盛",
      "words":"很好尻哈哈哈哈",
      "rating": "good",
      "ratingWord": "推荐"      
    },
        {
      "img":"images/store_nine/img_profile2.jpg",
      "name": "fe***kc",
      "words":"眼界大开",
      "rating": "good",
      "ratingWord": "推荐"      
    },
        {
      "img":"images/store_nine/img_profile12.jpg",
      "name": "xx3***P",
      "words":"6666老司机们开车啦",
      "rating": "good",
      "ratingWord": "推荐"      
    },
        {
      "img":"images/store_nine/img_profile14.jpg",
      "name": "谢***林",
      "words":"骚短片很多 妹正奶大赞啦",
      "rating": "good",
      "ratingWord": "推荐"      
    },
        {
      "img":"images/store_nine/img_profile16.jpg",
      "name": "曾***凯",
      "words":"抖淫你赢了 能有多点长片就好了",
      "rating": "good",
      "ratingWord": "推荐"      
    },
        {
      "img":"images/store_nine/img_profile13.jpg",
      "name": "蓝***时",
      "words":"独家片源 射惹",
      "rating": "good",
      "ratingWord": "推荐"      
    },
        {
      "img":"images/store_nine/img_profile17.jpg",
      "name": "王**凯",
      "words":"不错",
      "rating": "good",
      "ratingWord": "推荐"      
    },
    {
      "img":"images/store_nine/img_profile20.jpg",
      "name": "林***yyy",
      "words":"闲暇时间看片挺合适",
      "rating": "good",
      "ratingWord": "推荐"            
    },
    {
      "img":"images/store_nine/img_profile13.jpg",
      "name": "M***Y",
      "words":"上面的妹妹都很骚",
      "rating": "good",
      "ratingWord": "推荐"            
    },
    {
      "img":"images/store_nine/img_profile19.jpg",
      "name": "李***同",
      "words":"免费又好看的短视频软件",
      "rating": "normal",
      "ratingWord": "普通"      
    },
    {
      "img":"images/store_nine/img_profile9.jpg",
      "name": "uu**l",
      "words":"硬了",
      "rating": "good",
      "ratingWord": "推荐"      
    },
    {
      "img":"images/store_nine/img_profile8.jpg",
      "name": "q******333",
      "words":"赞",
      "rating": "good",
      "ratingWord": "推荐"      
    }    
  ]
}